<?xml version="1.0" encoding="UTF-8"?>
<Project>
   <description></description>
   <name>PhaseOne</name>
   <tag></tag>
   <UUID>579d3996-4558-4c95-8eee-8c008e7db800</UUID>
   <migratedVersion>5.4.0</migratedVersion>
   <pageLoadTimeout>0</pageLoadTimeout>
</Project>
